%YAML 1.1
%TAG !u! tag:unity3d.com,2011:
--- !u!1001 &7192763803002251031
PrefabInstance:
  m_ObjectHideFlags: 0
  serializedVersion: 2
  m_Modification:
    serializedVersion: 3
    m_TransformParent: {fileID: 0}
    m_Modifications:
    - target: {fileID: 4299939503432190516, guid: a97a83296ea8df94d9e088b026832035, type: 3}
      propertyPath: m_Name
      value: CellShop Variant
      objectReference: {fileID: 0}
    - target: {fileID: 4299939503432190516, guid: a97a83296ea8df94d9e088b026832035, type: 3}
      propertyPath: m_IsActive
      value: 1
      objectReference: {fileID: 0}
    - target: {fileID: 7202321303030175721, guid: a97a83296ea8df94d9e088b026832035, type: 3}
      propertyPath: m_OnClick.m_PersistentCalls.m_Calls.Array.size
      value: 0
      objectReference: {fileID: 0}
    - target: {fileID: 7202321303030175723, guid: a97a83296ea8df94d9e088b026832035, type: 3}
      propertyPath: m_Pivot.x
      value: 0.5
      objectReference: {fileID: 0}
    - target: {fileID: 7202321303030175723, guid: a97a83296ea8df94d9e088b026832035, type: 3}
      propertyPath: m_Pivot.y
      value: 0.5
      objectReference: {fileID: 0}
    - target: {fileID: 7202321303030175723, guid: a97a83296ea8df94d9e088b026832035, type: 3}
      propertyPath: m_RootOrder
      value: 9
      objectReference: {fileID: 0}
    - target: {fileID: 7202321303030175723, guid: a97a83296ea8df94d9e088b026832035, type: 3}
      propertyPath: m_AnchorMax.x
      value: 0
      objectReference: {fileID: 0}
    - target: {fileID: 7202321303030175723, guid: a97a83296ea8df94d9e088b026832035, type: 3}
      propertyPath: m_AnchorMax.y
      value: 1
      objectReference: {fileID: 0}
    - target: {fileID: 7202321303030175723, guid: a97a83296ea8df94d9e088b026832035, type: 3}
      propertyPath: m_AnchorMin.x
      value: 0
      objectReference: {fileID: 0}
    - target: {fileID: 7202321303030175723, guid: a97a83296ea8df94d9e088b026832035, type: 3}
      propertyPath: m_AnchorMin.y
      value: 1
      objectReference: {fileID: 0}
    - target: {fileID: 7202321303030175723, guid: a97a83296ea8df94d9e088b026832035, type: 3}
      propertyPath: m_SizeDelta.x
      value: 307.4
      objectReference: {fileID: 0}
    - target: {fileID: 7202321303030175723, guid: a97a83296ea8df94d9e088b026832035, type: 3}
      propertyPath: m_SizeDelta.y
      value: 274.2
      objectReference: {fileID: 0}
    - target: {fileID: 7202321303030175723, guid: a97a83296ea8df94d9e088b026832035, type: 3}
      propertyPath: m_LocalPosition.x
      value: 0
      objectReference: {fileID: 0}
    - target: {fileID: 7202321303030175723, guid: a97a83296ea8df94d9e088b026832035, type: 3}
      propertyPath: m_LocalPosition.y
      value: 0
      objectReference: {fileID: 0}
    - target: {fileID: 7202321303030175723, guid: a97a83296ea8df94d9e088b026832035, type: 3}
      propertyPath: m_LocalPosition.z
      value: 0
      objectReference: {fileID: 0}
    - target: {fileID: 7202321303030175723, guid: a97a83296ea8df94d9e088b026832035, type: 3}
      propertyPath: m_LocalRotation.w
      value: 1
      objectReference: {fileID: 0}
    - target: {fileID: 7202321303030175723, guid: a97a83296ea8df94d9e088b026832035, type: 3}
      propertyPath: m_LocalRotation.x
      value: -0
      objectReference: {fileID: 0}
    - target: {fileID: 7202321303030175723, guid: a97a83296ea8df94d9e088b026832035, type: 3}
      propertyPath: m_LocalRotation.y
      value: -0
      objectReference: {fileID: 0}
    - target: {fileID: 7202321303030175723, guid: a97a83296ea8df94d9e088b026832035, type: 3}
      propertyPath: m_LocalRotation.z
      value: -0
      objectReference: {fileID: 0}
    - target: {fileID: 7202321303030175723, guid: a97a83296ea8df94d9e088b026832035, type: 3}
      propertyPath: m_AnchoredPosition.x
      value: 182
      objectReference: {fileID: 0}
    - target: {fileID: 7202321303030175723, guid: a97a83296ea8df94d9e088b026832035, type: 3}
      propertyPath: m_AnchoredPosition.y
      value: -1442
      objectReference: {fileID: 0}
    - target: {fileID: 7202321303030175723, guid: a97a83296ea8df94d9e088b026832035, type: 3}
      propertyPath: m_LocalEulerAnglesHint.x
      value: 0
      objectReference: {fileID: 0}
    - target: {fileID: 7202321303030175723, guid: a97a83296ea8df94d9e088b026832035, type: 3}
      propertyPath: m_LocalEulerAnglesHint.y
      value: 0
      objectReference: {fileID: 0}
    - target: {fileID: 7202321303030175723, guid: a97a83296ea8df94d9e088b026832035, type: 3}
      propertyPath: m_LocalEulerAnglesHint.z
      value: 0
      objectReference: {fileID: 0}
    m_RemovedComponents:
    - {fileID: 7202321303030175720, guid: a97a83296ea8df94d9e088b026832035, type: 3}
    m_RemovedGameObjects: []
    m_AddedGameObjects: []
    m_AddedComponents: []
  m_SourcePrefab: {fileID: 100100000, guid: a97a83296ea8df94d9e088b026832035, type: 3}
